2
1
3
10
8
8
11
15
20
14
16
18
23
29
31
30
34
38
38
34
42
41
45
49
47
49
51
58
56
59
62
61
60
65
72
68
72
73
73
75
80
79
85
83
87
94
89
91
98
102
103
103
104
109
108
112
110
116
120
118
120
125
125
126
132
128
133
138
139
140
143
145
147
146
152
153
155
156
159
160
161
162
164
162
168
170
169
177
179
178
176
182
180
190
192
189
193
192
193
196
